Wordcloud pour illustrer un article · Saut d'R
…
## Joining, by = "word"

Je calcule ensuite la fréquence d’apparition de chaque mot

mot_freq<- tib_non_vides %>%
  count(word, sort = TRUE)

mot_freq

## # A tibble: 1,256 × 2
##    word             n
##    <chr>        <int>
##  1 savoir          40
##  2 pratique        33
##  3 public          26
##  4 conversation    24
##  5 féministe       24
##  6 espace          21
##  7 lieu            21
##  8 collectif       20
##  9 cours           20
## 10 étudiant        19
## # … with 1,246 more rows
…
